com/adventium/calcultaxes/model/TypeProduit.class
com/adventium/calcultaxes/servicesImp/FactureServiceImpl.class
com/adventium/calcultaxes/App.class
com/adventium/calcultaxes/services/FactureService.class
com/adventium/calcultaxes/model/Produit.class
com/adventium/calcultaxes/model/ProduitPanier.class
com/adventium/calcultaxes/model/Panier.class
